%YAML 1.1
%TAG !u! tag:unity3d.com,2011:
--- !u!114 &11400000
MonoBehaviour:
  m_ObjectHideFlags: 0
  m_CorrespondingSourceObject: {fileID: 0}
  m_PrefabInstance: {fileID: 0}
  m_PrefabAsset: {fileID: 0}
  m_GameObject: {fileID: 0}
  m_Enabled: 1
  m_EditorHideFlags: 0
  m_Script: {fileID: 11500000, guid: 59b6eea351e6c0642beb654636394aaa, type: 3}
  m_Name: Bacon
  m_EditorClassIdentifier: 
  foodName: Phils Fancy Bacon
  totalCalories: 70
  needsCalories: 1
